data_clean
…
ℹ Use `spec()` to retrieve the full column specification for this data.
ℹ Specify the column types or set `show_col_types = FALSE` to quiet this message.

view(AlternateRuns)

#remove irrelevant columns 
AlternateRuns <- AlternateRuns %>% 
  select(-y, -x, -c2)

#rename columns to understand better
alt_run <- AlternateRuns %>% 
  rename(dimshape = dim1, dimcolor = dim2, RT = time, correct = cor, response = res)
alt_run

# A tibble: 94,754 × 13
      id   bal block  cond trial cycle  task dimshape dimcolor correct error
   <dbl> <dbl> <dbl> <dbl> <dbl> <dbl> <dbl>    <dbl>    <dbl>   <dbl> <dbl>
 1     1     1     0     1     1     1     1        1        4       1     0
 2     1     1     0     1     2     2     1        2        4       2     0
 3     1     1     0     1     3     3     1        1        4       1     0
 4     1     1     0     1     4     4     1        2        4       2     0
 5     1     1     0     1     5     5     2        4        1       1     0
 6     1     1     0     1     6     6     2        4        2       2     0
 7     1     1     0     1     7     7     2        4        3       3     0
 8     1     1     0     1     8     8     2        4        2       2     0
 9     1     1     0     1     9     1     1        1        4       1     0
10     1     1     0     1    10     2     1        3        4       3     0
# ℹ 94,744 more rows
# ℹ 2 more variables: response <dbl>, RT <dbl>

# replace numeric values w character strings for task and error
alt_run_1 <- alt_run %>% mutate(task = recode(task, `1` = "shape", `2` = 'color')) %>% 
  mutate(error = recode(error, `0` = "no", `1` = 'yes'))
alt_run_1

# A tibble: 94,754 × 13
      id   bal block  cond trial cycle task  dimshape dimcolor correct error
   <dbl> <dbl> <dbl> <dbl> <dbl> <dbl> <chr>    <dbl>    <dbl>   <dbl> <chr>
 1     1     1     0     1     1     1 shape        1        4       1 no   
 2     1     1     0     1     2     2 shape        2        4       2 no   
 3     1     1     0     1     3     3 shape        1        4       1 no   
 4     1     1     0     1     4     4 shape        2        4       2 no   
 5     1     1     0     1     5     5 color        4        1       1 no   
 6     1     1     0     1     6     6 color        4        2       2 no   
 7     1     1     0     1     7     7 color        4        3       3 no   
 8     1     1     0     1     8     8 color        4        2       2 no   
 9     1     1     0     1     9     1 shape        1        4       1 no   
10     1     1     0     1    10     2 shape        3        4       3 no   
# ℹ 94,744 more rows
# ℹ 2 more variables: response <dbl>, RT <dbl>
…
error: 0 = no error, 1 = yes error

response: actual response

RT: or response time

## Remove Practice Trials in Block Variable + pivot func

#removing practice trials from our df
alt_run <- alt_run %>% 
  filter(block != 0) %>% 
  print()

# A tibble: 83,440 × 13
      id   bal block  cond trial cycle  task dimshape dimcolor correct error
   <dbl> <dbl> <dbl> <dbl> <dbl> <dbl> <dbl>    <dbl>    <dbl>   <dbl> <dbl>
 1     1     1     1     1     1     1     1        3        4       3     0
 2     1     1     1     1     2     2     1        3        4       3     0
 3     1     1     1     1     3     3     1        1        4       1     0
 4     1     1     1     1     4     4     1        2        4       2     0
 5     1     1     1     1     5     5     2        4        1       1     1
 6     1     1     1     1     6     6     2        4        1       1     0
 7     1     1     1     1     7     7     2        4        3       3     0
 8     1     1     1     1     8     8     2        4        1       1     0
 9     1     1     1     1     9     1     1        1        4       1     0
10     1     1     1     1    10     2     1        3        4       3     0
# ℹ 83,430 more rows
# ℹ 2 more variables: response <dbl>, RT <dbl>
#use pivot long and/or? wide here with some key variables we want to look at. may need to alter df to turn some 1s and 0s in columns to be names... (correct, incorrect or color, shape). fix code below...

# alt_run %>% 
#   pivot_wider(names_from = task, values_from = block)

Descriptive Graphs

Histogram of RT

mean_rt <- mean(alt_run$RT, na.rm = TRUE)
sd_rt <-  sd(alt_run$RT, na.rm = TRUE)

alt_run %>% arrange(desc(RT)) #there are quite a few RTs that get up to 10000 ms for one trial... determine outliers

# A tibble: 83,440 × 13
      id   bal block  cond trial cycle  task dimshape dimcolor correct error
   <dbl> <dbl> <dbl> <dbl> <dbl> <dbl> <dbl>    <dbl>    <dbl>   <dbl> <dbl>
 1     3     1     4     4    78     6     2        3        2       2     1
 2    17     1     4     4     9     1     1        1        2       1     1
 3    26     2     1     4     1     1     1        3        3       3     1
 4    41     1     1     1    81     1     1        3        4       3     1
 5    41     1     4     4   101     5     2        2        2       2     1
 6    48     2     7     3    73     1     1        1        4       1     0
 7    54     2     1     4    11     3     1        1        3       1     1
 8    54     2     1     4    48     8     2        2        3       3     1
 9    54     2     6     2     1     1     1        2        1       2     1
10    56     2     3     2    17     1     1        1        3       1     1
# ℹ 83,430 more rows
# ℹ 2 more variables: response <dbl>, RT <dbl>
…
